site_r
…
activity_wflow <- 
  workflow() %>% 
  add_recipe(df_rec) %>% 
  add_model(rf_spec)

activty_fit <- 
  activity_wflow %>% 
  fit(data = train_data)

Exemple Classification

predict(activty_fit, test_data)

# A tibble: 916 × 1
   .pred_class   
   <fct>         
 1 Lying         
 2 Lying         
 3 Lying         
 4 Sitting       
 5 Sitting       
 6 Self Pace walk
 7 Self Pace walk
 8 Lying         
 9 Lying         
10 Lying         
# … with 906 more rows
# ℹ Use `print(n = ...)` to see more rows
…
